<?xml version="1.0" standalone="no"?>
<!DOCTYPE svg PUBLIC "-//W3C//DTD SVG 1.1//EN" "http://www.w3.org/Graphics/SVG/1.1/DTD/svg11.dtd">
<svg xmlns="http://www.w3.org/2000/svg">
<metadata>Copyright (C) 2014 by original authors @ fontello.com</metadata>
<defs>
<font id="fontello" horiz-adv-x="1000" >
<font-face font-family="fontello" font-weight="400" font-stretch="normal" units-per-em="1000" ascent="850" descent="-150" />
<missing-glyph horiz-adv-x="1000" />
<glyph glyph-name="down-open" unicode="&#xe800;" d="m564 422l-234-224q-18-18-40-18t-40 18l-234 224q-16 16-16 41t16 41q38 38 78 0l196-188 196 188q40 38 78 0 16-16 16-41t-16-41z" horiz-adv-x="580" />
<glyph glyph-name="left-open" unicode="&#xe801;" d="m242 626q14 16 39 16t41-16q38-36 0-80l-186-196 186-194q38-44 0-80-16-16-40-16t-40 16l-226 236q-16 16-16 38 0 24 16 40 206 214 226 236z" horiz-adv-x="341" />
<glyph glyph-name="right-open" unicode="&#xe802;" d="m98 626l226-236q16-16 16-40 0-22-16-38l-226-236q-16-16-40-16t-40 16q-36 36 0 80l186 194-186 196q-36 44 0 80 16 16 41 16t39-16z" horiz-adv-x="340" />
<glyph glyph-name="up-open" unicode="&#xe803;" d="m564 280q16-16 16-41t-16-41q-38-38-78 0l-196 188-196-188q-40-38-78 0-16 16-16 41t16 41l234 224q16 16 40 16t40-16z" horiz-adv-x="580" />
<glyph glyph-name="down-open-mini" unicode="&#xe804;" d="m405 470q22 26 48 0 26-22 0-48l-196-192q-22-22-48 0l-196 192q-26 26 0 48 24 24 50 0l170-156z" horiz-adv-x="466" />
<glyph glyph-name="left-open-mini" unicode="&#xe805;" d="m252 180q26-26 0-48-26-26-48 0l-192 194q-24 24 0 50l192 194q22 26 48 0 26-22 0-48l-156-172z" horiz-adv-x="265" />
<glyph glyph-name="right-open-mini" unicode="&#xe806;" d="m13 180l158 170-158 172q-26 26 0 48 26 26 48 0l192-194q24-26 0-50l-192-194q-22-26-48 0-26 22 0 48z" horiz-adv-x="265" />
<glyph glyph-name="up-open-mini" unicode="&#xe807;" d="m62 230q-26-22-50 0-24 24 0 50l196 190q26 26 48 0l196-190q24-26 0-50-24-22-50 0l-170 158z" horiz-adv-x="464" />
<glyph glyph-name="down-dir" unicode="&#xe808;" d="m460 550l-230-400-230 400 460 0z" horiz-adv-x="460" />
<glyph glyph-name="right-dir" unicode="&#xe809;" d="m0 580l400-230-400-230 0 460z" horiz-adv-x="400" />
<glyph glyph-name="up-dir" unicode="&#xe80a;" d="m0 150l230 400 230-400-460 0z" horiz-adv-x="460" />
<glyph glyph-name="left-dir" unicode="&#xe80b;" d="m400 580l0-460-400 230z" horiz-adv-x="400" />
<glyph glyph-name="facebook" unicode="&#xe80c;" d="m500 644l-142 0q-14 0-25-15t-11-37l0-102 178 0 0-148-178 0 0-442-170 0 0 442-152 0 0 148 152 0 0 86q0 94 59 159t147 65l142 0 0-156z" horiz-adv-x="500" />
<glyph glyph-name="twitter-1" unicode="&#xe80d;" d="m920 636q-36-54-94-98l0-24q0-130-60-250t-186-203-290-83q-160 0-290 84 14-2 46-2 132 0 234 80-62 2-110 38t-66 94q10-4 34-4 26 0 50 6-66 14-108 66t-42 120l0 2q36-20 84-24-84 58-84 158 0 48 26 94 154-188 390-196-6 18-6 42 0 78 55 133t135 55q82 0 136-58 60 12 120 44-20-66-82-104 56 8 108 30z" horiz-adv-x="920" />
<glyph glyph-name="gplus" unicode="&#xe80e;" d="m48 572q0 58 25 102t56 65 69 34 56 15 26 2l230 0 0-4q0-22-78-36-28 0-38-6 40-20 54-56t14-96q0-102-68-158-38-38-38-54 0-18 50-64 104-90 104-178 0-140-116-194-68-34-150-34l-4 0-4 2q-2-2-4-2-24 0-54 5t-75 21-74 57-29 103q0 60 32 101t83 57 88 22 71 6l2 0q-16 22-24 47t-8 39l2 14-14 0q-64 0-110 30-74 44-74 160z m370-452q-4 52-43 84t-103 32l-16 0q-64-2-114-46-46-42-42-94t53-80 119-24q68 4 109 40t37 88z m-60 500q-30 108-122 108-12 0-20-2-40-12-58-62-16-50-2-106 14-52 47-85t71-33q12 0 18 2 42 12 63 65t3 113z m388-174l150 0 0-94-150 0 0-150-94 0 0 150-150 0 0 94 150 0 0 150 94 0 0-150z" horiz-adv-x="896" />
<glyph glyph-name="pinterest" unicode="&#xe80f;" d="m320 190q-26-130-58-211t-96-129q-6 74-7 120t11 110 22 104 26 99 24 99q-24 52-19 116t48 106 99 20q40-16 44-59t-13-95-32-103-4-90 63-49q68-14 121 38t74 131 11 163-54 128q-62 64-151 70t-163-33-120-117-32-170q4-22 22-52t21-47-17-67q-146 34-140 230 4 138 105 234t233 112q164 18 290-57t144-219q26-176-66-317t-252-129q-22 2-42 9t-30 13-31 21-31 21z" horiz-adv-x="778" />
<glyph glyph-name="tumblr" unicode="&#xe810;" d="m560-58q-48-26-106-40-48-12-102-12-58 0-110 16-54 20-82 46-36 32-46 64-14 30-14 96l0 322-100 0 0 130q54 18 92 50t62 80q24 52 30 116l130 0 0-232 216 0 0-144-216 0 0-236q0-84 8-102 10-24 32-36 28-20 68-20 68 0 138 46l0-144z" horiz-adv-x="560" />
<glyph glyph-name="linkedin" unicode="&#xe811;" d="m204 698q0-40-29-68t-75-28q-44 0-72 28t-28 68q0 42 28 69t74 27 73-27 29-69z m-198-790l0 618 192 0 0-618-192 0z m306 420q0 86-4 198l166 0 10-86 4 0q60 100 190 100 100 0 161-67t61-199l0-366-192 0 0 342q0 134-98 134-70 0-98-72-6-12-6-48l0-356-194 0 0 420z" horiz-adv-x="900" />
<glyph glyph-name="dribbble" unicode="&#xe812;" d="m438 480q-30 54-66 109t-56 84-24 33q-82-40-139-112t-77-162q182 0 362 48z m50-132q8 4 14 4-10 28-32 68-182-56-402-56l0-14q0-150 100-262 4 8 13 21t39 50 64 69 89 66 115 54z m-270-306q-2 0-4 2l-4 4z m148 690z m354-86q-114 98-260 98-48 0-92-12 82-108 146-228 138 52 204 140z m-260-756q-190 0-325 135t-135 325 135 325 325 135 325-135 135-325-135-325-325-135z m68 396q-216-74-308-242l-2-2q110-84 242-84 78 0 154 32-24 140-84 298z m16 158q12-24 26-56 2-2 5-9t5-11q66 8 129 4t101-10 42-8q0 138-88 246l-8-10q-8-10-26-27t-42-36-62-42-82-41z m60-138q52-148 76-280 140 92 168 262-8 4-39 11t-88 12-117-5z" horiz-adv-x="920" />
<glyph glyph-name="stumbleupon" unicode="&#xe813;" d="m552 448l0 60q0 22-15 37t-37 15q-20 0-36-15t-16-37l0-314q0-92-66-158t-158-66-158 66-66 158l0 132 172 0 0-132q0-20 16-36t36-16 36 16 16 36l0 314q0 92 66 157t158 65 158-65 66-157l0-60-102-34z m278-122l170 0 0-132q0-92-66-158t-158-66-158 66-66 158l0 134 70-32 102 32 0-134q0-20 16-36t36-16q22 0 38 15t16 37l0 132z" horiz-adv-x="1000" />
<glyph glyph-name="lastfm" unicode="&#xe814;" d="m394 222l34-100q-64-52-168-52-106 0-183 73t-77 199q0 130 80 209t188 79q112 0 167-45t91-159l36-116q48-146 202-146 120 0 120 60 0 54-78 72l-78 18q-134 34-134 152 0 88 58 126t146 38q184 0 198-146l-114-14q-8 70-90 70t-82-62q0-50 66-66l74-16q150-36 150-166 0-160-238-160-136 0-204 53t-100 149l-36 116q-14 40-22 60t-25 43-42 33-61 10q-64 0-113-46t-49-142q0-80 46-130t110-50q60 0 128 56z" horiz-adv-x="1000" />
<glyph glyph-name="rdio" unicode="&#xe815;" d="m766 402q4-32 4-52 0-160-113-275t-273-115q-158 0-271 115t-113 275q0 162 112 276t272 114q52 0 90-10l0-222q-76 26-154-10-70-34-101-101t-5-129q26-60 95-79t139 15q52 26 87 80t35 122l0 286q16-8 24-14 174-108 310-114 32-2 4-52-42-76-130-106z" horiz-adv-x="921" />
<glyph glyph-name="spotify" unicode="&#xe816;" d="m440 790q182 0 311-129t129-311q0-110-51-205t-139-157q-100 170-310 176-162 6-272-104-108 124-108 290 0 184 128 312t312 128z m214-596q16 22-8 38-172 106-422 48-26-8-20-32 6-26 32-22 228 54 382-40 22-14 36 8z m54 124q18 30-12 48-100 62-235 77t-251-19q-32-10-24-44 12-32 42-22 104 32 225 18t209-68q28-20 46 10z m4 130q34-20 56 14 20 34-14 56-116 68-288 82t-282-24q-14-4-22-19t-4-31q10-38 50-28 94 34 249 22t255-72z m-336-414q120-6 172-110-64-14-108-14-114 0-214 56 58 72 150 68z" horiz-adv-x="880" />
<glyph glyph-name="qq" unicode="&#xe817;" d="m812 200q30-22 38-53t-12-61q-110-154-298-187t-344 77q-24 16-38 30 76-24 148-25t128 18 101 43 80 57 53 52 28 35q20 30 53 33t63-19z m-612 30q14-32 1-61t-47-45q-32-16-64-7t-46 41q-80 172-14 352t238 260q24 10 44 16-84-76-123-170t-32-178 18-130 25-78z m302 580q190-18 312-164t106-336q-4-32-8-48-20 92-67 163t-98 109-110 63-92 32-57 9q-34 2-54 29t-16 63q4 38 26 60t58 20z m-196-486q16 38 34 46l0 6q0 12 8 24l0 2q0 8 2 12 4 50 33 82t79 32q48 0 78-32t32-82q2-4 2-12l0-2q8-8 8-24l0-6q18-8 34-46 26-54 6-66-12-6-30 22-6-28-30-46 26-10 26-26 0-14-18-23t-44-9q-52 0-60 26l-8 0q-12-26-62-26-26 0-44 9t-18 23q0 16 26 26-24 20-30 46-18-28-28-22-22 10 4 66z" horiz-adv-x="922" />
<glyph glyph-name="dropbox" unicode="&#xe818;" d="m286 806l194-158-284-184-196 164z m368-754q8 0 12 2l116 78 0-46-302-190-302 190 0 46 118-78q4-2 12-2 10 0 14 4l158 132 160-132q4-4 14-4z m306 576l-194-164-286 184 196 158z m-480-342l286 178 174-140-282-184z m-176-146l-282 184 174 140 284-178z" horiz-adv-x="960" />
<glyph glyph-name="instagram" unicode="&#xe819;" d="m690 350q0 26-6 50l176 0 0-344q0-56-39-96t-95-40l-592 0q-56 0-95 40t-39 96l0 344 174 0q-4-32-4-50 0-106 76-183t184-77q106 0 183 77t77 183z m36 430q56 0 95-39t39-95l0-146-218 0q-78 110-212 110-138 0-212-110l-218 0 0 146q0 56 39 95t95 39l592 0z m64-166l0 72q0 24-24 24l-72 0q-24 0-24-24l0-72q0-8 7-16t17-8l72 0q24 0 24 24z m-200-264q0-66-47-113t-113-47-113 47-47 113q0 68 47 114t113 46 113-46 47-114z" horiz-adv-x="860" />
<glyph glyph-name="evernote" unicode="&#xe81a;" d="m750 636q0-4 5-73t9-144-1-171-19-171-51-126-91-51q-154 0-194 26-26 20-18 130 2 40 37 59t69 19l34-2-4-70q-12-2-38-2-20 0-24-26-4-38 40-42l86 4q38 4 28 136-2 16-18 26t-34 13-49 8-47 9q-28 8-46 28t-27 37-11 17-8-58-30-58q-44 0-139 15t-115 35q-34 34-62 149t-28 151q0 34 58 30l116 0q78 0 78 72 0 12-1 52t-1 60q0 82 40 82 90 0 120-14 18-8 29-26t13-34l4-14 202-12q10 0 25-3t39-19 24-42z m-96-302q6 6-2 32t-29 52-49 26-45-23-21-46 0-29q8-6 15-5t26 5 31 4q14 0 31-6t28-10 15 0z m-482 308q0-22-28-22l-144 0 176 172q-4-138-4-150z" horiz-adv-x="766" />
<glyph glyph-name="skype" unicode="&#xe81b;" d="m894 250q26-58 26-118 0-108-75-185t-179-77q-62 0-120 32-52-8-80-8-182 0-311 132t-129 320q0 44 10 90-36 60-36 134 0 108 74 184t180 76q74 0 136-40 32 8 76 8 182 0 310-132t128-320q0-46-10-96z m-204-120q30 46 30 100 0 44-16 80-16 30-50 54-36 22-76 36-68 20-96 26-14 2-35 7t-27 7q-24 8-34 14-16 8-26 22-10 10-10 26 0 24 28 42 26 20 76 20t74-18q26-22 38-50 16-26 26-36 16-12 38-12 26 0 46 20 18 18 18 44 0 20-14 52-16 24-42 48-28 22-74 38-48 14-102 14-72 0-128-22-56-20-86-60t-30-92 28-90q34-40 76-56 48-22 116-36 12-2 29-7t30-8 21-5q28-10 46-28 18-14 18-42 0-34-32-56-36-24-90-24-40 0-64 12-26 14-36 28-24 44-26 46-8 24-24 40-20 14-40 14-28 0-46-18t-18-42q0-38 28-82 26-40 72-66 64-34 158-34 78 0 138 24 60 28 88 70z" horiz-adv-x="920" />
<glyph glyph-name="renren" unicode="&#xe81c;" d="m384 808l0-292q-2-150-77-274t-197-184q-110 130-110 296 0 170 110 298t274 156z m76-570q42-174 222-288-102-56-222-56t-220 56q178 114 220 288z m76 280l0 290q164-28 274-156t110-298q0-168-108-296-124 60-200 184t-76 276z" horiz-adv-x="920" />
<glyph glyph-name="sina-weibo" unicode="&#xe81d;" d="m732 348q118-38 118-136 0-102-127-197t-313-95q-160 0-285 78t-125 196q0 130 146 280 92 92 186 129t134-3q36-36 10-116-4-14 8-14l16 2q74 34 134 34t84-34q24-36-2-100-6-18 16-24z m-322-354q122 12 202 77t72 145q-10 80-100 128t-212 36-202-77-70-145q8-80 98-128t212-36z m586 488l0-2q0-14-11-24t-25-10-24 10-10 24q0 96-68 163t-162 67q-16 0-26 10t-10 26q0 34 36 34 124 0 212-87t88-211z m-140 4q4-14-4-27t-22-15q-34-4-42 28-8 38-36 66t-66 36q-34 8-26 40 8 36 42 28 58-12 100-55t54-101z m-528-210q48 10 88-12t48-62q10-40-19-77t-79-45q-48-10-88 12t-48 62 20 76 78 46z" horiz-adv-x="996" />
<glyph glyph-name="paypal" unicode="&#xe81e;" d="m771 610l8-4q38-22 60-62 20-38 20-96 0-130-110-210-106-80-306-80l-30 0q-16 0-32-12t-20-28l-36-156q-12-42-52-42l-106 0q-18 0-28 13t-6 29l6 24 68 0q16 0 32 13t20 29l36 156q10 40 52 40l30 0q196 0 306 80 110 82 110 210 0 56-22 96z m-580-516q-2-16-18-29t-32-13l-108 0q-18 0-27 13t-5 29l150 646q10 40 52 40l224 0q78 0 126-8 56-12 94-34 36-24 58-62 20-38 20-96 0-130-110-210-106-80-304-80l-32 0q-16 0-32-12t-18-28z m88 374q-4-16 6-28t26-12l28 0q86 0 134 36 48 34 48 98 0 44-30 64-32 20-94 20l-34 0q-42 0-52-40z" horiz-adv-x="859" />
<glyph glyph-name="picasa" unicode="&#xe81f;" d="m250 760q10-12 158-144l-396-362q-12 48-12 96 0 130 67 240t183 170z m400 10l0-278-328 296q64 22 138 22 98 0 190-40z m70-40q94-64 147-165t53-215q0-80-26-152l-174 0 0 532z m-686-550q12 12 66 60l102 92 0-362q-116 80-168 210z m238-250l0 198 590 0q-56-100-151-163t-209-75l-84 0q-84 10-146 40z" horiz-adv-x="920" />
<glyph glyph-name="soundcloud" unicode="&#xe820;" d="m34 178q0-4-10-4-6 0-10 4l-14 70 14 72q4 4 10 4 10 0 10-4l16-72z m102-38q0-8-12-8t-12 8l-12 108 12 166q0 8 12 8t12-8l14-166z m102 2q0-10-14-10t-14 8l-10 108 10 222q0 10 14 10t14-10l12-222z m102 0q0-10-16-10t-16 10l-8 106 8 224q0 10 16 10t16-10l10-224z m102 2q0-12-18-12-16 0-18 12l-6 104 6 256q4 14 18 14 18 0 18-14l8-256z m72-12q-14 0-14 14l0 396q0 10 12 14 36 14 84 14 88 0 153-58t73-142q24 10 50 10 52 0 90-37t38-87q0-52-38-89t-90-37z" horiz-adv-x="1000" />
<glyph glyph-name="mixi" unicode="&#xe821;" d="m477-12q-184 0-319 101t-155 255q-22 170 108 308t336 164 366-77 182-273q14-118-35-244t-165-225-270-117l0 108-48 0z m306 220l0 276q0 34-10 52-8 18-30 38-16 12-44 20-28 6-56 6-44 0-74-16-24-12-42-30-10 16-36 32-30 14-70 14-66 0-110-38l0 30-88 0 0-384 92 0 0 236q0 4 4 20 4 10 16 26 10 14 26 20 20 10 40 10 18 0 30-6 8-4 16-10 4-8 8-20 4-16 4-28l0-248 90 0 0 236q0 36 22 54 22 22 62 22 20 0 32-6 10-2 16-12 8-8 8-18 4-20 4-28l0-248 90 0z" horiz-adv-x="998" />
<glyph glyph-name="behance" unicode="&#xe822;" d="m404 386q56 0 85-40t31-80l0-40q0-56-20-96t-50-58-59-27-49-11l-342 0 0 646 322 0q78 0 127-44t49-128q0-50-23-81t-47-37z m-262 180l0-144 170 0q26 0 40 15t14 61q0 30-11 47t-23 19l-10 2-180 0z m172-416q74 0 74 84 0 40-16 62t-32 24l-18 2-180 0 0-172 172 0z m468 366q70 0 118-29t67-70 27-82 6-69l-2-30-320 0q0-54 27-82t55-28l26-2q46 0 71 17t27 33l2 18 108 0q0-82-53-124t-105-44l-54-2q-72 0-122 25t-72 62-33 73-11 60l0 26q0 10 1 27t14 60 36 75 72 59 115 27z m98-194q0 4-1 11t-6 24-13 30-28 24-46 11q-42 0-70-25t-34-51l-6-24 204 0z m26 320l0-78-256 0 0 78 256 0z" horiz-adv-x="1000" />
<glyph glyph-name="google-circles" unicode="&#xe823;" d="m556 810q152 0 258-106t106-256q0-142-96-247t-236-115q-34-86-112-141t-172-55q-126 0-215 90t-89 214q0 96 54 173t140 111q12 140 116 236t246 96z m-252-818q118 0 174 100-104 22-179 97t-97 179q-100-56-100-174 0-84 59-143t143-59z m4 404q16-76 70-129t128-69q-2 80-60 138t-138 60z m300-198q88 18 145 88t57 162q0 106-75 180t-179 74q-90 0-161-58t-87-146q124-2 211-89t89-211z m-504 398q-42 0-73 30t-31 72q0 44 31 74t73 30q44 0 74-30t30-74q0-42-30-72t-74-30z m0 160q-24 0-40-17t-16-41q0-22 16-39t40-17 41 17 17 39q0 24-17 41t-41 17z" horiz-adv-x="920" />
<glyph glyph-name="vimeo" unicode="&#xe824;" d="m896 558q-32-186-171-351t-245-237q-42-28-81-17t-66 38-43 61q-16 32-78 239t-74 223q-16 12-38 5t-44-21l-20-14-36 50q18 20 46 52t100 89 124 67q30 6 53-7t36-35 23-60 15-70 12-75 13-67q14-54 21-80t17-54 18-39 18-11q40 0 126 166 42 76 6 124t-112 2q22 126 140 188 104 54 182 8 80-46 58-174z" horiz-adv-x="901" />
<glyph glyph-name="flickr" unicode="&#xe825;" d="m196 150q-80 0-138 59t-58 141q0 84 57 142t139 58 139-58 57-142q0-82-58-141t-138-59z m508 0q-80 0-138 59t-58 141q0 84 57 142t139 58 139-58 57-142q0-82-58-141t-138-59z" horiz-adv-x="900" />
<glyph glyph-name="github" unicode="&#xe826;" d="m620 286q26 0 45-26t19-64-19-64-45-26q-28 0-47 26t-19 64 19 64 47 26z m226 234q74-80 74-194 0-74-17-133t-43-96-64-65-70-41-73-20-62-8-45-1q-6 0-36-1t-50-1-50 1-36 1q-24 0-45 1t-62 8-73 20-70 41-64 65-43 96-17 133q0 114 74 194-8 4-1 80t33 140q92-10 228-104 46 12 126 12 84 0 126-12 62 42 119 68t83 30l26 6q26-64 33-140t-1-80z m-384-514q166 0 251 40t85 164q0 72-54 120-28 26-65 32t-113 0-104-6l-4 0q-32 0-83 4t-80 5-63-7-56-28q-52-46-52-120 0-124 84-164t250-40l4 0z m-160 280q26 0 45-26t19-64-19-64-45-26q-28 0-47 26t-19 64 19 64 47 26z" horiz-adv-x="920" />
<glyph glyph-name="mail" unicode="&#xe827;" d="m30 586q-32 18-28 40 2 14 26 14l846 0q38 0 20-32-8-14-24-22-14-6-192-102t-182-98q-16-10-46-10-28 0-46 10-4 2-182 98t-192 102z m850-100q20 10 20-10l0-368q0-16-17-32t-33-16l-800 0q-16 0-33 16t-17 32l0 368q0 20 20 10l384-200q18-10 46-10t46 10z" horiz-adv-x="900" />
<glyph glyph-name="print" unicode="&#xe828;" d="m0 176l0 305 1000 0 0-305-154 0 54-265-800 0 54 265-154 0z m33 362l235 99 39 0 0 153 386 0 0-153 39 0 235-99-934 0z m131-553l672 0-78 381-516 0z" horiz-adv-x="1000" />
<glyph glyph-name="print-1" unicode="&#xe829;" d="m0 92v512q0 35 26 60t62 25h59v14q0 36 26 61t61 24h469q36 0 62-24t25-61v-20q0 1 1 3t1 3h57q36 0 62-25t26-60v-512q0-35-26-60t-62-25h-59v-10q0-35-25-60t-62-26h-469q-36 0-61 26t-26 60v10h-59q-36 0-62 25t-26 60z m205-95q0-11 9-19t20-8h469q12 0 21 8t9 19v339q-21 12-45 12h-439q-23 0-44-12v-339z m0 612q16-5 30-5h468q12 0 30 5v94q0 11-9 19t-21 8h-469q-12 0-20-8t-9-19v-94z" horiz-adv-x="937.5" />
<glyph glyph-name="print-2" unicode="&#xe82a;" d="m66 526q-26 0-22 22 4 10 12 14 2 0 49 17t93 32 58 15l44 0 0 150 380 0 0-150 46 0q12 0 57-15t92-32 49-17q18-8 12-26-4-10-20-10l-850 0z m860-56q20 0 37-19t17-41l0-174q0-22-17-41t-37-19l-100 0 44-250-760 0 44 250-98 0q-20 0-38 19t-18 41l0 174q0 22 18 41t38 19l870 0z m-716-444l560 0-70 324-420 0z" horiz-adv-x="980" />
</font>
</defs>
</svg>